3/4/2017 18:46:23 PM	[Trace]	#### Server boot ####
3/4/2017 18:46:23 PM	[Trace]	#### Server boot ####
3/4/2017 18:46:23 PM	[Log]	Server mounted, listening on port 4296
3/4/2017 18:46:23 PM	[Trace]	Found plugin: C:\Users\Roland\Documents\Git\miners-bomb-miners\Miners Kill Miners\Plugins\MinersBombMinersServerPlugin.dll, type of MinersBombMinersServerPlugin.MinersBombMinersServerPlugin
3/4/2017 18:46:23 PM	[Trace]	Found a total of 1 plugins.
3/4/2017 18:46:23 PM	[Log]	------------------------------------------
3/4/2017 18:46:23 PM	[Log]	IPADDRESS FOR THIS SERVER IS: 192.168.43.231
3/4/2017 18:46:23 PM	[Log]	Please connect to the IP Address
3/4/2017 18:46:23 PM	[Log]	------------------------------------------
3/4/2017 18:46:23 PM	[Log]	Loaded plugin: Miners Bomb Miners Plugin Version: 1.1
3/4/2017 18:46:24 PM	[Log]	Connected: 192.168.43.231:60944
3/4/2017 18:46:24 PM	[Log]	Received message from1 to lose
3/4/2017 18:46:24 PM	[Trace]	Exception trace ConnectionService.ProcessDataItem
3/4/2017 18:46:24 PM	[Error]	System.Collections.Generic.KeyNotFoundException: The given key was not present in the dictionary.
   at System.Collections.Generic.Dictionary`2.get_Item(TKey key)
   at MinersBombMinersServerPlugin.MinersBombMinersServerPlugin.OnDataReceived(ConnectionService con, NetworkMessage& msg)
   at DarkRift.ConnectionService.ProcessDataItem(Object context)
