4/4/2017 10:08:18 AM	[Trace]	#### Server boot ####
4/4/2017 10:08:18 AM	[Trace]	#### Server boot ####
4/4/2017 10:08:18 AM	[Log]	Server mounted, listening on port 4296
4/4/2017 10:08:18 AM	[Trace]	Found plugin: C:\Users\Roland\Documents\Git\miners-bomb-miners\Miners Kill Miners\Plugins\MinersBombMinersServerPlugin.dll, type of MinersBombMinersServerPlugin.MinersBombMinersServerPlugin
4/4/2017 10:08:18 AM	[Trace]	Found a total of 1 plugins.
4/4/2017 10:08:18 AM	[Log]	------------------------------------------
4/4/2017 10:08:18 AM	[Log]	IPADDRESS FOR THIS SERVER IS: 192.168.43.231
4/4/2017 10:08:18 AM	[Log]	Please connect to the IP Address
4/4/2017 10:08:18 AM	[Log]	------------------------------------------
4/4/2017 10:08:18 AM	[Log]	Loaded plugin: Miners Bomb Miners Plugin Version: 1.1
4/4/2017 10:08:19 AM	[Log]	Connected: 192.168.43.231:61133
