24/4/2017 09:56:08 AM	[Trace]	#### Server boot ####
24/4/2017 09:56:08 AM	[Trace]	#### Server boot ####
24/4/2017 09:56:08 AM	[Log]	Server mounted, listening on port 4296
24/4/2017 09:56:08 AM	[Trace]	Found plugin: C:\Users\Roland\Documents\Git\miners-bomb-miners\DarkRiftServer - Free\Plugins\MinersBombMinersServerPlugin.dll, type of MinersBombMinersServerPlugin.MinersBombMinersServerPlugin
24/4/2017 09:56:08 AM	[Trace]	Found a total of 1 plugins.
24/4/2017 09:56:08 AM	[Log]	------------------------------------------
24/4/2017 09:56:08 AM	[Log]	IPADDRESS FOR THIS SERVER IS: 192.168.43.231
24/4/2017 09:56:08 AM	[Log]	Please connect to the IP Address
24/4/2017 09:56:08 AM	[Log]	------------------------------------------
24/4/2017 09:56:08 AM	[Log]	Loaded plugin: Miners Bomb Miners Plugin Version: 1.1
